{
  "version": "1.0",
  "defaultProvider": "unpkg",
  "libraries": [
    {
      "library": "jquery@3.6.0",
      "destination": "wwwroot/scripts/jquery/",
      "files": [
        "dist/jquery.min.js"
      ]
    },
    {
      "library": "jquery-validation@1.19.3",
      "destination": "wwwroot/scripts/jquery-validation/",
      "files": [
        "dist/jquery.validate.min.js"
      ]
    },
    {
      "library": "jquery-validation-unobtrusive@3.2.12",
      "destination": "wwwroot/scripts/jquery-validation-unobtrusive/",
      "files": [
        "dist/jquery.validate.unobtrusive.min.js"
      ]
    }
  ]
}